Tam Nguyen One-Way ANOVA: Shapesplosion
…
How many categories does the factor have? In an experiment, the categories of a categorical explanatory variable (factor) are called levels or factor levels.

Factor levels: four group of students ((exact, small, medium, large))

Clearly define the response variable in this study. What is the unit of measure?

The mean time it took a student to complete a designated match proximity.

RESEARCH QUESTION: Is there a significant difference in average time to win Shapeplosion based on the MP level? That is, does MP has a significant effect on performance?

B. EXPLORATORY DATA ANALYSIS

train

## # A tibble: 43 x 3
##    Sex   MP      Time
##    <chr> <chr>  <int>
##  1 M     Large     54
##  2 F     Small     54
##  3 F     Small     58
##  4 M     Small     53
##  5 F     Xact      66
##  6 M     Medium    50
##  7 M     Xact      79
##  8 F     Medium    62
##  9 M     Large     42
## 10 F     Large     40
## # ... with 33 more rows
…
